{
  "user-name": "frank",
  "description": "BAML Project",
  "password": "test",
  "role": ["lob-rates",
           "region-amer",
           "pii-reader",
           "rest-reader",
           "rest-extension-user",
           "rest-writer",
           "qconsole-user"
          ]
}
